\relax 
\providecommand\hyper@newdestlabel[2]{}
\providecommand\HyperFirstAtBeginDocument{\AtBeginDocument}
\HyperFirstAtBeginDocument{\ifx\hyper@anchor\@undefined
\global\let\oldcontentsline\contentsline
\gdef\contentsline#1#2#3#4{\oldcontentsline{#1}{#2}{#3}}
\global\let\oldnewlabel\newlabel
\gdef\newlabel#1#2{\newlabelxx{#1}#2}
\gdef\newlabelxx#1#2#3#4#5#6{\oldnewlabel{#1}{{#2}{#3}}}
\AtEndDocument{\ifx\hyper@anchor\@undefined
\let\contentsline\oldcontentsline
\let\newlabel\oldnewlabel
\fi}
\fi}
\global\let\hyper@last\relax 
\gdef\HyperFirstAtBeginDocument#1{#1}
\providecommand\HyField@AuxAddToFields[1]{}
\providecommand\HyField@AuxAddToCoFields[2]{}
\@writefile{toc}{\contentsline {section}{\numberline {1}Introduction}{1}{section.1}}
\newlabel{sec:intro}{{1}{1}{Introduction}{section.1}{}}
\@writefile{toc}{\contentsline {section}{\numberline {2}Data Description}{1}{section.2}}
\newlabel{sec:data}{{2}{1}{Data Description}{section.2}{}}
\@writefile{lof}{\contentsline {figure}{\numberline {1}{\ignorespaces Shotlog Visualization\relax }}{2}{figure.caption.4}}
\providecommand*\caption@xref[2]{\@setref\relax\@undefined{#1}}
\newlabel{fig:shotlog_visual}{{1}{2}{Shotlog Visualization\relax }{figure.caption.4}{}}
\@writefile{toc}{\contentsline {subsection}{\numberline {2.1}Data Source}{2}{subsection.2.1}}
\@writefile{toc}{\contentsline {subsection}{\numberline {2.2}Data Preprocessing}{2}{subsection.2.2}}
\@writefile{toc}{\contentsline {paragraph}{Team Pruning}{2}{section*.2}}
\@writefile{toc}{\contentsline {paragraph}{Shot Position Transformation}{2}{figure.caption.4}}
\@writefile{toc}{\contentsline {section}{\numberline {3}Problem Statement}{2}{section.3}}
\@writefile{toc}{\contentsline {paragraph}{Team Segmentation}{2}{section*.5}}
\@writefile{lof}{\contentsline {figure}{\numberline {2}{\ignorespaces Network Architecture \relax }}{3}{figure.caption.7}}
\newlabel{fig:rnn}{{2}{3}{Network Architecture \relax }{figure.caption.7}{}}
\@writefile{lot}{\contentsline {table}{\numberline {1}{\ignorespaces Network Summary\relax }}{3}{table.caption.8}}
\newlabel{tbl:summary}{{1}{3}{Network Summary\relax }{table.caption.8}{}}
\@writefile{toc}{\contentsline {paragraph}{Synthetic Play Generation}{3}{section*.6}}
\@writefile{toc}{\contentsline {section}{\numberline {4}Core Methods}{3}{section.4}}
\@writefile{toc}{\contentsline {subsection}{\numberline {4.1}RNN-based Team Segmentation}{3}{subsection.4.1}}
\@writefile{toc}{\contentsline {paragraph}{Sequence Modeling with RNN}{3}{section*.9}}
\@writefile{toc}{\contentsline {paragraph}{Encodings Generation}{3}{section*.10}}
\@writefile{toc}{\contentsline {paragraph}{Put it all together}{3}{section*.11}}
\@writefile{toc}{\contentsline {subsection}{\numberline {4.2}RNN-based Synthetic Play Generation}{3}{subsection.4.2}}
\@writefile{lof}{\contentsline {figure}{\numberline {3}{\ignorespaces Model Learning\relax }}{4}{figure.caption.12}}
\newlabel{fig:rnn-training}{{3}{4}{Model Learning\relax }{figure.caption.12}{}}
\@writefile{lof}{\contentsline {figure}{\numberline {4}{\ignorespaces Play Generation\relax }}{4}{figure.caption.12}}
\newlabel{fig:rnn-generation}{{4}{4}{Play Generation\relax }{figure.caption.12}{}}
\@writefile{toc}{\contentsline {paragraph}{Model Training}{4}{section*.13}}
\@writefile{toc}{\contentsline {paragraph}{Play Generation}{4}{section*.14}}
\@writefile{toc}{\contentsline {section}{\numberline {5}Experiments}{4}{section.5}}
\@writefile{toc}{\contentsline {subsection}{\numberline {5.1}Baseline Segmentation Model vs. RNN Segmentation Model}{4}{subsection.5.1}}
\@writefile{toc}{\contentsline {paragraph}{Result Validation}{4}{section*.15}}
\@writefile{lof}{\contentsline {figure}{\numberline {5}{\ignorespaces Baseline Segmentation using MLP\relax }}{5}{figure.caption.17}}
\newlabel{fig:baseline_clustering}{{5}{5}{Baseline Segmentation using MLP\relax }{figure.caption.17}{}}
\@writefile{lof}{\contentsline {figure}{\numberline {6}{\ignorespaces (LSTM) RNN Segmentation\relax }}{5}{figure.caption.17}}
\newlabel{fig:rnn_clustering}{{6}{5}{(LSTM) RNN Segmentation\relax }{figure.caption.17}{}}
\@writefile{lof}{\contentsline {figure}{\numberline {7}{\ignorespaces Real shot logs by Duke Blue Devils\relax }}{5}{figure.caption.18}}
\newlabel{fig:real-shots}{{7}{5}{Real shot logs by Duke Blue Devils\relax }{figure.caption.18}{}}
\@writefile{lof}{\contentsline {figure}{\numberline {8}{\ignorespaces Synthetic shot logs generated by RNN\relax }}{5}{figure.caption.18}}
\newlabel{fig:fake-shots}{{8}{5}{Synthetic shot logs generated by RNN\relax }{figure.caption.18}{}}
\@writefile{lot}{\contentsline {table}{\numberline {2}{\ignorespaces Cluster Analysis\relax }}{5}{table.caption.16}}
\newlabel{tbl:validation}{{2}{5}{Cluster Analysis\relax }{table.caption.16}{}}
\@writefile{toc}{\contentsline {subsection}{\numberline {5.2}Synthetic Play Generation}{5}{subsection.5.2}}
\@writefile{toc}{\contentsline {section}{\numberline {6}Discussions and Future Work}{6}{section.6}}
\@writefile{toc}{\contentsline {section}{\numberline {7}Conclusion}{6}{section.7}}
